<svg xmlns="http://www.w3.org/2000/svg" width="25" height="25" viewBox="0 0 25 25">
    <path fill="#FFF" fill-rule="nonzero" d="M16.121 6.19a.636.636 0 0 0-.907 0 .64.64 0 0 0 0 .898l4.6 4.6H4.635a.632.632 0 0 0-.635.636c0 .354.281.644.635.644h15.179l-4.6 4.591a.651.651 0 0 0 0 .907.636.636 0 0 0 .907 0l5.689-5.688a.625.625 0 0 0 0-.898L16.12 6.19z"/>
</svg>
