<svg xmlns="http://www.w3.org/2000/svg" width="25" height="25" viewBox="0 0 25 25">
    <path fill="#2C3542" fill-rule="nonzero" d="M20.006 15.693c1.307-4.275-1.108-8.817-5.383-10.124a8.11 8.11 0 0 0-6.01.51l-.866-.753c-.478-.416-.978-.18-1.116.527l-.806 4.14c-.138.707.302 1.09.983.857l3.99-1.372c.681-.235.9-.714.49-1.07l-.743-.647a5.82 5.82 0 0 1 3.41-.01 5.832 5.832 0 0 1 3.869 7.275 5.832 5.832 0 0 1-7.275 3.868 5.819 5.819 0 0 1-2.533-1.57 1.14 1.14 0 1 0-1.66 1.565 8.106 8.106 0 0 0 3.526 2.188c4.275 1.307 8.817-1.108 10.124-5.384z"/>
</svg>
