<svg xmlns="http://www.w3.org/2000/svg" width="25" height="25" viewBox="0 0 25 25">
    <g fill="none" fill-rule="nonzero">
        <circle cx="13" cy="13" r="11" fill="#FFF"/>
        <path fill="#F14343" d="M8.667 17.667C8.667 18.4 9.267 19 10 19h5.333c.734 0 1.334-.6 1.334-1.333v-8h-8v8zm8.666-10H15L14.333 7H11l-.667.667H8V9h9.333V7.667z"/>
    </g>
</svg>
