<svg xmlns="http://www.w3.org/2000/svg" width="25" height="25" viewBox="0 0 25 25">
    <g fill="#F14343" fill-rule="evenodd">
        <path d="M11.725 8h-.003a.715.715 0 0 0-.705.722L11 13.272c-.001.4.313.727.702.728h.002l.01-.001.008.001c.024 0 .049-.007.073-.01.019-.002.038-.003.058-.007a.686.686 0 0 0 .211-.075l5.574-3.192a.735.735 0 0 0 .273-.985.694.694 0 0 0-.959-.28l-4.539 2.599.013-3.322A.714.714 0 0 0 11.725 8z"/>
        <path d="M23 12.5C23 6.7 18.3 2 12.5 2S2 6.7 2 12.5c0 .912.117 1.797.335 2.64a2.102 2.102 0 0 1 2.068-1.744H4.5a8.067 8.067 0 0 1-.051-.896c0-4.439 3.611-8.05 8.05-8.05s8.05 3.611 8.05 8.05-3.611 8.05-8.05 8.05c-.252 0-.501-.013-.747-.036v.232c0 .948-.632 1.751-1.497 2.011A10.53 10.53 0 0 0 12.5 23C18.3 23 23 18.3 23 12.5z"/>
        <path fill-rule="nonzero" d="M10 20.496v-4.279C10 15.546 9.454 15 8.783 15H4.217C3.546 15 3 15.546 3 16.217v4.566C3 21.454 3.546 22 4.217 22h4.566C9.454 22 10 21.454 10 20.783v-.287zm-2.398-1.781l1.101 1.1a.303.303 0 0 1 .063.336.306.306 0 0 1-.063.095l-.457.457a.304.304 0 0 1-.43 0l-1.1-1.1a.304.304 0 0 0-.431 0l-.953.952-.148.148a.304.304 0 0 1-.43 0l-.458-.457a.304.304 0 0 1 0-.43l.14-.14.962-.961a.304.304 0 0 0 0-.43l-1.101-1.101a.304.304 0 0 1 0-.43l.457-.458c.01-.01.022-.013.032-.021a.301.301 0 0 1 .398.021l1.101 1.101a.304.304 0 0 0 .43 0l1.101-1.1a.304.304 0 0 1 .43 0l.457.456a.304.304 0 0 1 0 .43l-1.1 1.101a.304.304 0 0 0 0 .43z"/>
    </g>
</svg>
