<svg xmlns="http://www.w3.org/2000/svg" width="25" height="25" viewBox="0 0 25 25">
    <path fill="#2C3542" fill-rule="nonzero" stroke="#2C3542" stroke-width=".5" d="M13.207 12.5l3.89 3.89a.5.5 0 1 1-.708.706L12.5 13.207l-3.89 3.89a.5.5 0 1 1-.706-.708l3.889-3.889-3.89-3.89a.5.5 0 1 1 .708-.706l3.889 3.889 3.89-3.89a.5.5 0 1 1 .706.708L13.207 12.5z"/>
</svg>
