<svg xmlns="http://www.w3.org/2000/svg" xmlns:xlink="http://www.w3.org/1999/xlink" width="60" height="60" viewBox="0 0 60 60">
    <defs>
        <circle id="b" cx="25" cy="25" r="25"/>
        <filter id="a" width="134%" height="134%" x="-17%" y="-13%" filterUnits="objectBoundingBox">
            <feOffset dy="2" in="SourceAlpha" result="shadowOffsetOuter1"/>
            <feGaussianBlur in="shadowOffsetOuter1" result="shadowBlurOuter1" stdDeviation="2.5"/>
            <feColorMatrix in="shadowBlurOuter1" values="0 0 0 0 0.17254902 0 0 0 0 0.207843137 0 0 0 0 0.258823529 0 0 0 0.14 0"/>
        </filter>
    </defs>
    <g fill="none" fill-rule="nonzero">
        <g transform="translate(5 3)">
            <use fill="#000" filter="url(#a)" xlink:href="#b"/>
            <use fill="#FFF" xlink:href="#b"/>
        </g>
        <path fill="#FFE9D9" d="M18.473 15.326a1.01 1.01 0 0 0-.873.975v19.5h-1.625c-.51 0-.975.464-.975.974v.65c0 .808.22 1.59.721 2.214a2.839 2.839 0 0 0 2.204 1.036H32.55a3.265 3.265 0 0 0 3.25-3.25V16.301c0-.51-.465-.975-.975-.975H18.473z"/>
        <path fill="#FF6800" stroke="#FFE9D9" stroke-width=".4" d="M34.05 17.076h-14.7V36h10.925c.4 0 .775.375.775.775v.65c0 .764.543 1.375 1.29 1.478l.086.01h.008l.096.011c.868.001 1.52-.651 1.52-1.499v-20.35zm-15.565-1.55l.01-.001h-.022.012zM36.9 16.3zm.4-.001v19.936c0 .164.055.329.153.46l2.6 3.463c.282.378.962.378 1.244 0l2.6-3.463a.782.782 0 0 0 .153-.46V16.302c0-.4-.375-.775-.775-.775h-2.651c-1.52-.001-2.632 0-2.63-.001a.81.81 0 0 0-.694.775zm1.55.776h3.65v1.05h-3.65v-1.05zm0 2.6h1.05v15.35h-1.05v-15.35zm2.6 0h1.05v15.35h-1.05v-15.35zM30.917 21.03c-.403.004-.775.389-.767.796v9.102c-.006.404.371.786.775.786s.78-.382.775-.789v-9.104c.009-.407-.375-.795-.783-.79zm-8.775 3.25c-.403.004-.775.389-.767.795v5.853c-.006.404.371.786.775.786s.78-.382.775-.789v-5.854c.009-.407-.375-.795-.783-.79zm5.85 0c-.403.004-.775.389-.767.795v5.853c-.006.404.371.786.775.786s.78-.382.775-.789v-5.854c.009-.407-.375-.795-.783-.79zm-2.925 1.95c-.403.004-.775.389-.767.795v3.903c-.006.404.371.786.775.786s.78-.382.775-.789v-3.904c.009-.407-.375-.795-.783-.79zM39.31 36.575h2.728L40.675 38.4l-1.364-1.824zm-22.555.975H29.54l.019.18c.04.373.104.66.217.914l.125.281H17.925c-.4 0-.631-.111-.847-.38-.137-.17-.232-.437-.285-.763l-.037-.232z"/>
    </g>
</svg>
