<svg xmlns="http://www.w3.org/2000/svg" width="25" height="25" viewBox="0 0 25 25">
    <g fill="#FF6800" fill-rule="nonzero">
        <path d="M17.58 10l2.82 2.82L14.22 19l-2.82-2.82L17.58 10zm-6.862 7l2.682 2.683-.226.226a.633.633 0 0 1-.246.153l-2.694.904a.632.632 0 0 1-.8-.799l.893-2.682a.631.631 0 0 1 .153-.247l.238-.238zM23.843 6.53a1.886 1.886 0 0 1 0 2.675L22.095 11 19.4 8.324l1.748-1.794c.711-.707 1.984-.707 2.695 0z"/>
        <path d="M4.453 13.219h8.045L19 6.86V4.379c0-1.115-.916-2.021-2.058-2.021h-.75v-.684a.682.682 0 0 0-.69-.674.682.682 0 0 0-.691.674v.684H13.43v-.684A.682.682 0 0 0 12.74 1a.682.682 0 0 0-.691.674v.684h-1.381v-.684A.682.682 0 0 0 9.977 1a.682.682 0 0 0-.69.674v.684H7.904v-.684A.682.682 0 0 0 7.215 1a.682.682 0 0 0-.69.674v.684H5.142v-.684A.682.682 0 0 0 4.453 1a.682.682 0 0 0-.69.674v.684h-.691C1.929 2.358 1 3.262 1 4.372V21.98C1 23.094 1.93 24 3.07 24h13.872C18.084 24 19 23.103 19 21.989v-5.6l-4.582 4.485c-.223.217-.5.386-.8.485l-2.947.966a2.096 2.096 0 0 1-2.341-.737 1.947 1.947 0 0 1-.323-1.631H4.453a.682.682 0 0 1-.69-.674c0-.372.308-.674.69-.674h3.99l.46-1.347h-4.45a.682.682 0 0 1-.69-.674c0-.373.308-.674.69-.674h5.283l1.38-1.348H4.454a.682.682 0 0 1-.69-.673c0-.373.308-.674.69-.674zm0-5.39h5.063c.381 0 .69.3.69.673a.682.682 0 0 1-.69.674H4.453a.682.682 0 0 1-.69-.674c0-.372.308-.674.69-.674zm0 2.694h7.926c.382 0 .69.302.69.674a.682.682 0 0 1-.69.674H4.453a.682.682 0 0 1-.69-.674c0-.372.308-.674.69-.674z"/>
    </g>
</svg>
