<svg xmlns="http://www.w3.org/2000/svg" xmlns:xlink="http://www.w3.org/1999/xlink" width="62" height="62" viewBox="0 0 62 62">
    <defs>
        <circle id="a" cx="30" cy="30" r="30"/>
    </defs>
    <g fill="none" fill-rule="evenodd">
        <g transform="translate(1 1)">
            <mask id="b" fill="#fff">
                <use xlink:href="#a"/>
            </mask>
            <use fill="#FFF" stroke="#2C3542" stroke-opacity=".1" xlink:href="#a"/>
            <circle cx="32.308" cy="30.462" r="27.692" fill="#2C3542" fill-opacity=".02" mask="url(#b)"/>
        </g>
        <path fill="#606771" fill-rule="nonzero" d="M28.5 42h12c.825 0 1.5-.675 1.5-1.5v-12H28.5V42zm12-21h-18c-.825 0-1.5.675-1.5 1.5V27h21v-4.5c0-.825-.675-1.5-1.5-1.5zM21 40.5c0 .825.675 1.5 1.5 1.5H27V28.5h-6v12z"/>
    </g>
</svg>
